CENTRÓIDES INICIAIS
Cluster 1: 4.574071706 5.397650689 
Cluster 2: 4.191693876 4.95469359 
Erro execucao 1: 42.28782080048359
CENTRÓIDES INICIAIS
Cluster 1: 3.579684583 4.802780735 
Cluster 2: 5.707328091 6.68103995 
Erro execucao 2: 42.28782080048359
CENTRÓIDES INICIAIS
Cluster 1: 2.675746302 3.730969875 
Cluster 2: 5.911298445 6.680768527 
Erro execucao 3: 42.28782080048359